<?xml version="1.0" encoding="utf-8"?>
<!-- Generator: Adobe Illustrator 20.1.0, SVG Export Plug-In . SVG Version: 6.00 Build 0)  -->
<svg version="1.1" id="Layer_1" xmlns="http://www.w3.org/2000/svg" xmlns:xlink="http://www.w3.org/1999/xlink" x="0px" y="0px"
	 viewBox="0 0 203.3 304.2" style="enable-background:new 0 0 203.3 304.2;" xml:space="preserve">
<style type="text/css">
	.st0{fill:#FCFCFC;}
</style>
<path class="st0" d="M193.8,145.9L53.9,6c-1.7-1.7-3.9-2.6-6.2-2.6c-2.2,0-4.5,0.9-6.2,2.6L8.7,38.8c-3.4,3.4-3.4,9,0,12.4
	l100.9,100.9L8.7,253c-3.4,3.4-3.4,9,0,12.4l32.8,32.8c1.7,1.7,3.9,2.6,6.2,2.6c2.2,0,4.5-0.9,6.2-2.6l139.9-139.9
	C197.2,154.9,197.2,149.3,193.8,145.9z"/>
</svg>
